…
    ## `summarise()` has grouped output by 'REGION'. You can override using the
    ## `.groups` argument.

``` r
nuevadata2
```

    ## # A tibble: 40 × 4
    ## # Groups:   REGION [4]
    ##    REGION CIUDAD                                      PROM_INGRESOS MAX_INGRESOS
    ##    <chr>  <chr>                                               <dbl>        <dbl>
    ##  1 SIERRA "SANTA ISABEL                             …        0.0976       0.0976
    ##  2 SIERRA "SANTA ROSA DE CUSUBAMBA                  …        0.0951       0.0951
    ##  3 SIERRA "SARAGURO                                 …        0.0949       0.0949
    ##  4 COSTA  "SALINAS                                  …        0.0939       0.0939
    ##  5 COSTA  "MANTA                                    …        0.0932       0.0932
    ##  6 COSTA  "NARANJAL                                 …        0.0902       0.0902
    ##  7 SIERRA "SANGOLQUÍ                                …        0.0898       0.0913
    ##  8 SIERRA "MACHACHI                                 …        0.0891       0.0891
    ##  9 COSTA  "ATACAMES                                 …        0.0891       0.0891
    ## 10 COSTA  "DAULE                                    …        0.0887       0.099 
    ## # ℹ 30 more rows
